Verilog/adder_v/test_adder.vcd
$date
	Tue Nov 29 20:33:56 2022
$end
$version
	Icarus Verilog
$end
$timescale
	1s
$end
$scope module adder_tb $end
$var wire 32 ! sum [31:0] $end
$var wire 1 " cout $end
$var reg 32 # a [31:0] $end
$var reg 32 $ b [31:0] $end
$var reg 1 % cin $end
$var reg 1 & clk $end
$var reg 1 ' rst $end
$scope module inst $end
$var wire 32 ( a [31:0] $end
$var wire 32 ) b [31:0] $end
$var wire 1 % cin $end
$var wire 1 & clk $end
$var wire 1 ' rst $end
$var reg 32 * ai [31:0] $end
$var reg 32 + bi [31:0] $end
$var reg 1 , ci $end
$var reg 1 " cout $end
$var reg 32 - sum [31:0] $end
$upscope $end
$upscope $end
$enddefinitions $end
#0
$dumpvars
bx -
x,
bx +
bx *
b0 )
b0 (
0'
0&
0%
b0 $
b0 #
x"
bx !
$end
#10
0,
b0 +
b0 *
1&
1'
#20
0&
b1 #
b1 (
#30
0"
b0 !
b0 -
b1 *
1&
#40
0&
b10 #
b10 (
b1 $
b1 )
#50
b1 !
b1 -
b1 +
b10 *
1&
#60
0&
b11 #
b11 (
#70
b11 !
b11 -
b11 *
1&
#80
0&
b100 #
b100 (
b10 $
b10 )
1%
#90
b100 !
b100 -
1,
b10 +
b100 *
1&
#100
0&
b101 #
b101 (
#110
b111 !
b111 -
b101 *
1&
#120
0&
b110 #
b110 (
b11 $
b11 )
#130
b1000 !
b1000 -
b11 +
b110 *
1&
#140
0&
b111 #
b111 (
#150
b1010 !
b1010 -
b111 *
1&
#160
0&
b1000 #
b1000 (
b100 $
b100 )
0%
#170
b1011 !
b1011 -
0,
b100 +
b1000 *
1&
#180
0&
b1001 #
b1001 (
#190
b1100 !
b1100 -
b1001 *
1&
#200
0&
b1010 #
b1010 (
b101 $
b101 )
#210
b1101 !
b1101 -
b101 +
b1010 *
1&
#220
0&
b1011 #
b1011 (
#230
b1111 !
b1111 -
b1011 *
1&
#240
0&
b1100 #
b1100 (
b110 $
b110 )
1%
#250
b10000 !
b10000 -
1,
b110 +
b1100 *
1&
#260
0&
b1101 #
b1101 (
#270
b10011 !
b10011 -
b1101 *
1&
#280
0&
b1110 #
b1110 (
b111 $
b111 )
#290
b10100 !
b10100 -
b111 +
b1110 *
1&
#300
0&
b1111 #
b1111 (
#310
b10110 !
b10110 -
b1111 *
1&
#320
0&
b10000 #
b10000 (
b1000 $
b1000 )
0%
#330
b10111 !
b10111 -
0,
b1000 +
b10000 *
1&
#340
0&
b10001 #
b10001 (
#350
b11000 !
b11000 -
b10001 *
1&
#360
0&
b10010 #
b10010 (
b1001 $
b1001 )
#370
b11001 !
b11001 -
b1001 +
b10010 *
1&
#380
0&
b10011 #
b10011 (
#390
b11011 !
b11011 -
b10011 *
1&
#400
0&
b10100 #
b10100 (
b1010 $
b1010 )
1%
#410
b11100 !
b11100 -
1,
b1010 +
b10100 *
1&
#420
0&
b10101 #
b10101 (
#430
b11111 !
b11111 -
b10101 *
1&
#440
0&
b10110 #
b10110 (
b1011 $
b1011 )
#450
b100000 !
b100000 -
b1011 +
b10110 *
1&
#460
0&
b10111 #
b10111 (
#470
b100010 !
b100010 -
b10111 *
1&
#480
0&
b11000 #
b11000 (
b1100 $
b1100 )
0%
#490
b100011 !
b100011 -
0,
b1100 +
b11000 *
1&
#500
0&
b11001 #
b11001 (
#510
b100100 !
b100100 -
b11001 *
1&
#520
0&
b11010 #
b11010 (
b1101 $
b1101 )
#530
b100101 !
b100101 -
b1101 +
b11010 *
1&
#540
0&
b11011 #
b11011 (
#550
b100111 !
b100111 -
b11011 *
1&
#560
0&
b11100 #
b11100 (
b1110 $
b1110 )
1%
#570
b101000 !
b101000 -
1,
b1110 +
b11100 *
1&
#580
0&
b11101 #
b11101 (
#590
b101011 !
b101011 -
b11101 *
1&
#600
0&
b11110 #
b11110 (
b1111 $
b1111 )
#610
b101100 !
b101100 -
b1111 +
b11110 *
1&
#620
0&
b11111 #
b11111 (
#630
b101110 !
b101110 -
b11111 *
1&
#640
0&
b100000 #
b100000 (
b10000 $
b10000 )
0%
#650
b101111 !
b101111 -
0,
b10000 +
b100000 *
1&
#660
0&
b100001 #
b100001 (
#670
b110000 !
b110000 -
b100001 *
1&
#680
0&
b100010 #
b100010 (
b10001 $
b10001 )
#690
b110001 !
b110001 -
b10001 +
b100010 *
1&
#700
0&
b100011 #
b100011 (
#710
b110011 !
b110011 -
b100011 *
1&
#720
0&
b100100 #
b100100 (
b10010 $
b10010 )
1%
#730
b110100 !
b110100 -
1,
b10010 +
b100100 *
1&
#740
0&
b100101 #
b100101 (
#750
b110111 !
b110111 -
b100101 *
1&
#760
0&
b100110 #
b100110 (
b10011 $
b10011 )
#770
b111000 !
b111000 -
b10011 +
b100110 *
1&
#780
0&
b100111 #
b100111 (
#790
b111010 !
b111010 -
b100111 *
1&
#800
0&
b101000 #
b101000 (
b10100 $
b10100 )
0%
#810
b111011 !
b111011 -
0,
b10100 +
b101000 *
1&
#820
0&
b101001 #
b101001 (
#830
b111100 !
b111100 -
b101001 *
1&
#840
0&
b101010 #
b101010 (
b10101 $
b10101 )
#850
b111101 !
b111101 -
b10101 +
b101010 *
1&
#860
0&
b101011 #
b101011 (
#870
b111111 !
b111111 -
b101011 *
1&
#880
0&
b101100 #
b101100 (
b10110 $
b10110 )
1%
#890
b1000000 !
b1000000 -
1,
b10110 +
b101100 *
1&
#900
0&
b101101 #
b101101 (
#910
b1000011 !
b1000011 -
b101101 *
1&
#920
0&
b101110 #
b101110 (
b10111 $
b10111 )
#930
b1000100 !
b1000100 -
b10111 +
b101110 *
1&
#940
0&
b101111 #
b101111 (
#950
b1000110 !
b1000110 -
b101111 *
1&
#960
0&
b110000 #
b110000 (
b11000 $
b11000 )
0%
#970
b1000111 !
b1000111 -
0,
b11000 +
b110000 *
1&
#980
0&
b110001 #
b110001 (
#990
b1001000 !
b1001000 -
b110001 *
1&
#1000
0&
b110010 #
b110010 (
b11001 $
b11001 )
#1010
b1001001 !
b1001001 -
b11001 +
b110010 *
1&
#1020
0&
b110011 #
b110011 (
#1030
b1001011 !
b1001011 -
b110011 *
1&
#1040
0&
b110100 #
b110100 (
b11010 $
b11010 )
1%
#1050
b1001100 !
b1001100 -
1,
b11010 +
b110100 *
1&
#1060
0&
b110101 #
b110101 (
#1070
b1001111 !
b1001111 -
b110101 *
1&
#1080
0&
b110110 #
b110110 (
b11011 $
b11011 )
#1090
b1010000 !
b1010000 -
b11011 +
b110110 *
1&
#1100
0&
b110111 #
b110111 (
#1110
b1010010 !
b1010010 -
b110111 *
1&
#1120
0&
b111000 #
b111000 (
b11100 $
b11100 )
0%
#1130
b1010011 !
b1010011 -
0,
b11100 +
b111000 *
1&
#1140
0&
b111001 #
b111001 (
#1150
b1010100 !
b1010100 -
b111001 *
1&
#1160
0&
b111010 #
b111010 (
b11101 $
b11101 )
#1170
b1010101 !
b1010101 -
b11101 +
b111010 *
1&
#1180
0&
b111011 #
b111011 (
#1190
b1010111 !
b1010111 -
b111011 *
1&
#1200
0&
b111100 #
b111100 (
b11110 $
b11110 )
1%
#1210
b1011000 !
b1011000 -
1,
b11110 +
b111100 *
1&
#1220
0&
b111101 #
b111101 (
#1230
b1011011 !
b1011011 -
b111101 *
1&
#1240
0&
b111110 #
b111110 (
b11111 $
b11111 )
#1250
b1011100 !
b1011100 -
b11111 +
b111110 *
1&
#1260
0&
b111111 #
b111111 (
#1270
b1011110 !
b1011110 -
b111111 *
1&
#1280
0&
b1000000 #
b1000000 (
b100000 $
b100000 )
0%
#1290
b1011111 !
b1011111 -
0,
b100000 +
b1000000 *
1&
#1300
0&
b1000001 #
b1000001 (
#1310
b1100000 !
b1100000 -
b1000001 *
1&
#1320
0&
b1000010 #
b1000010 (
b100001 $
b100001 )
#1330
b1100001 !
b1100001 -
b100001 +
b1000010 *
1&
#1340
0&
b1000011 #
b1000011 (
#1350
b1100011 !
b1100011 -
b1000011 *
1&
#1360
0&
b1000100 #
b1000100 (
b100010 $
b100010 )
1%
#1370
b1100100 !
b1100100 -
1,
b100010 +
b1000100 *
1&
#1380
0&
b1000101 #
b1000101 (
#1390
b1100111 !
b1100111 -
b1000101 *
1&
#1400
0&
b1000110 #
b1000110 (
b100011 $
b100011 )
#1410
b1101000 !
b1101000 -
b100011 +
b1000110 *
1&
#1420
0&
b1000111 #
b1000111 (
#1430
b1101010 !
b1101010 -
b1000111 *
1&
#1440
0&
b1001000 #
b1001000 (
b100100 $
b100100 )
0%
#1450
b1101011 !
b1101011 -
0,
b100100 +
b1001000 *
1&
#1460
0&
b1001001 #
b1001001 (
#1470
b1101100 !
b1101100 -
b1001001 *
1&
#1480
0&
b1001010 #
b1001010 (
b100101 $
b100101 )
#1490
b1101101 !
b1101101 -
b100101 +
b1001010 *
1&
#1500
0&
b1001011 #
b1001011 (
#1510
b1101111 !
b1101111 -
b1001011 *
1&
#1520
0&
b1001100 #
b1001100 (
b100110 $
b100110 )
1%
#1530
b1110000 !
b1110000 -
1,
b100110 +
b1001100 *
1&
#1540
0&
b1001101 #
b1001101 (
#1550
b1110011 !
b1110011 -
b1001101 *
1&
#1560
0&
b1001110 #
b1001110 (
b100111 $
b100111 )
#1570
b1110100 !
b1110100 -
b100111 +
b1001110 *
1&
#1580
0&
b1001111 #
b1001111 (
#1590
b1110110 !
b1110110 -
b1001111 *
1&
#1600
0&
b1010000 #
b1010000 (
b101000 $
b101000 )
0%
#1610
b1110111 !
b1110111 -
0,
b101000 +
b1010000 *
1&
#1620
0&
b1010001 #
b1010001 (
#1630
b1111000 !
b1111000 -
b1010001 *
1&
#1640
0&
b1010010 #
b1010010 (
b101001 $
b101001 )
#1650
b1111001 !
b1111001 -
b101001 +
b1010010 *
1&
#1660
0&
b1010011 #
b1010011 (
#1670
b1111011 !
b1111011 -
b1010011 *
1&
#1680
0&
b1010100 #
b1010100 (
b101010 $
b101010 )
1%
#1690
b1111100 !
b1111100 -
1,
b101010 +
b1010100 *
1&
#1700
0&
b1010101 #
b1010101 (
#1710
b1111111 !
b1111111 -
b1010101 *
1&
#1720
0&
b1010110 #
b1010110 (
b101011 $
b101011 )
#1730
b10000000 !
b10000000 -
b101011 +
b1010110 *
1&
#1740
0&
b1010111 #
b1010111 (
#1750
b10000010 !
b10000010 -
b1010111 *
1&
#1760
0&
b1011000 #
b1011000 (
b101100 $
b101100 )
0%
#1770
b10000011 !
b10000011 -
0,
b101100 +
b1011000 *
1&
#1780
0&
b1011001 #
b1011001 (
#1790
b10000100 !
b10000100 -
b1011001 *
1&
#1800
0&
b1011010 #
b1011010 (
b101101 $
b101101 )
#1810
b10000101 !
b10000101 -
b101101 +
b1011010 *
1&
#1820
0&
b1011011 #
b1011011 (
#1830
b10000111 !
b10000111 -
b1011011 *
1&
#1840
0&
b1011100 #
b1011100 (
b101110 $
b101110 )
1%
#1850
b10001000 !
b10001000 -
1,
b101110 +
b1011100 *
1&
#1860
0&
b1011101 #
b1011101 (
#1870
b10001011 !
b10001011 -
b1011101 *
1&
#1880
0&
b1011110 #
b1011110 (
b101111 $
b101111 )
#1890
b10001100 !
b10001100 -
b101111 +
b1011110 *
1&
#1900
0&
b1011111 #
b1011111 (
#1910
b10001110 !
b10001110 -
b1011111 *
1&
#1920
0&
b1100000 #
b1100000 (
b110000 $
b110000 )
0%
#1930
b10001111 !
b10001111 -
0,
b110000 +
b1100000 *
1&
#1940
0&
b1100001 #
b1100001 (
#1950
b10010000 !
b10010000 -
b1100001 *
1&
#1960
0&
b1100010 #
b1100010 (
b110001 $
b110001 )
#1970
b10010001 !
b10010001 -
b110001 +
b1100010 *
1&
#1980
0&
b1100011 #
b1100011 (
#1990
b10010011 !
b10010011 -
b1100011 *
1&
#2000
0&
b1100100 #
b1100100 (
b110010 $
b110010 )
1%
#2010
b10010100 !
b10010100 -
1,
b110010 +
b1100100 *
1&
#2020
0&
b1100101 #
b1100101 (
#2030
b10010111 !
b10010111 -
b1100101 *
1&
#2040
0&
b1100110 #
b1100110 (
b110011 $
b110011 )
#2050
b10011000 !
b10011000 -
b110011 +
b1100110 *
1&
#2060
0&
b1100111 #
b1100111 (
#2070
b10011010 !
b10011010 -
b1100111 *
1&
#2080
0&
b1101000 #
b1101000 (
b110100 $
b110100 )
0%
#2090
b10011011 !
b10011011 -
0,
b110100 +
b1101000 *
1&
#2100
0&
b1101001 #
b1101001 (
#2110
b10011100 !
b10011100 -
b1101001 *
1&
#2120
0&
b1101010 #
b1101010 (
b110101 $
b110101 )
#2130
b10011101 !
b10011101 -
b110101 +
b1101010 *
1&
#2140
0&
b1101011 #
b1101011 (
#2150
b10011111 !
b10011111 -
b1101011 *
1&
#2160
0&
b1101100 #
b1101100 (
b110110 $
b110110 )
1%
#2170
b10100000 !
b10100000 -
1,
b110110 +
b1101100 *
1&
#2180
0&
b1101101 #
b1101101 (
#2190
b10100011 !
b10100011 -
b1101101 *
1&
#2200
0&
b1101110 #
b1101110 (
b110111 $
b110111 )
#2210
b10100100 !
b10100100 -
b110111 +
b1101110 *
1&
#2220
0&
b1101111 #
b1101111 (
#2230
b10100110 !
b10100110 -
b1101111 *
1&
#2240
0&
b1110000 #
b1110000 (
b111000 $
b111000 )
0%
#2250
b10100111 !
b10100111 -
0,
b111000 +
b1110000 *
1&
#2260
0&
b1110001 #
b1110001 (
#2270
b10101000 !
b10101000 -
b1110001 *
1&
#2280
0&
b1110010 #
b1110010 (
b111001 $
b111001 )
#2290
b10101001 !
b10101001 -
b111001 +
b1110010 *
1&
#2300
0&
b1110011 #
b1110011 (
#2310
b10101011 !
b10101011 -
b1110011 *
1&
#2320
0&
b1110100 #
b1110100 (
b111010 $
b111010 )
1%
#2330
b10101100 !
b10101100 -
1,
b111010 +
b1110100 *
1&
#2340
0&
b1110101 #
b1110101 (
#2350
b10101111 !
b10101111 -
b1110101 *
1&
#2360
0&
b1110110 #
b1110110 (
b111011 $
b111011 )
#2370
b10110000 !
b10110000 -
b111011 +
b1110110 *
1&
#2380
0&
b1110111 #
b1110111 (
#2390
b10110010 !
b10110010 -
b1110111 *
1&
#2400
0&
b1111000 #
b1111000 (
b111100 $
b111100 )
0%
#2410
b10110011 !
b10110011 -
0,
b111100 +
b1111000 *
1&
#2420
0&
b1111001 #
b1111001 (
#2430
b10110100 !
b10110100 -
b1111001 *
1&
#2440
0&
b1111010 #
b1111010 (
b111101 $
b111101 )
#2450
b10110101 !
b10110101 -
b111101 +
b1111010 *
1&
#2460
0&
b1111011 #
b1111011 (
#2470
b10110111 !
b10110111 -
b1111011 *
1&
#2480
0&
b1111100 #
b1111100 (
b111110 $
b111110 )
1%
#2490
b10111000 !
b10111000 -
1,
b111110 +
b1111100 *
1&
#2500
0&
b1111101 #
b1111101 (
#2510
b10111011 !
b10111011 -
b1111101 *
1&
#2520
0&
b1111110 #
b1111110 (
b111111 $
b111111 )
#2530
b10111100 !
b10111100 -
b111111 +
b1111110 *
1&
#2540
0&
b1111111 #
b1111111 (
#2550
b10111110 !
b10111110 -
b1111111 *
1&
#2560
0&
b10000000 #
b10000000 (
b1000000 $
b1000000 )
0%
#2570
b10111111 !
b10111111 -
0,
b1000000 +
b10000000 *
1&
#2580
0&
b10000001 #
b10000001 (
#2590
b11000000 !
b11000000 -
b10000001 *
1&
#2600
0&
b10000010 #
b10000010 (
b1000001 $
b1000001 )
#2610
b11000001 !
b11000001 -
b1000001 +
b10000010 *
1&
#2620
0&
b10000011 #
b10000011 (
#2630
b11000011 !
b11000011 -
b10000011 *
1&
#2640
0&
b10000100 #
b10000100 (
b1000010 $
b1000010 )
1%
#2650
b11000100 !
b11000100 -
1,
b1000010 +
b10000100 *
1&
#2660
0&
b10000101 #
b10000101 (
#2670
b11000111 !
b11000111 -
b10000101 *
1&
#2680
0&
b10000110 #
b10000110 (
b1000011 $
b1000011 )
#2690
b11001000 !
b11001000 -
b1000011 +
b10000110 *
1&
#2700
0&
b10000111 #
b10000111 (
#2710
b11001010 !
b11001010 -
b10000111 *
1&
#2720
0&
b10001000 #
b10001000 (
b1000100 $
b1000100 )
0%
#2730
b11001011 !
b11001011 -
0,
b1000100 +
b10001000 *
1&
#2740
0&
b10001001 #
b10001001 (
#2750
b11001100 !
b11001100 -
b10001001 *
1&
#2760
0&
b10001010 #
b10001010 (
b1000101 $
b1000101 )
#2770
b11001101 !
b11001101 -
b1000101 +
b10001010 *
1&
#2780
0&
b10001011 #
b10001011 (
#2790
b11001111 !
b11001111 -
b10001011 *
1&
#2800
0&
b10001100 #
b10001100 (
b1000110 $
b1000110 )
1%
#2810
b11010000 !
b11010000 -
1,
b1000110 +
b10001100 *
1&
#2820
0&
b10001101 #
b10001101 (
#2830
b11010011 !
b11010011 -
b10001101 *
1&
#2840
0&
b10001110 #
b10001110 (
b1000111 $
b1000111 )
#2850
b11010100 !
b11010100 -
b1000111 +
b10001110 *
1&
#2860
0&
b10001111 #
b10001111 (
#2870
b11010110 !
b11010110 -
b10001111 *
1&
#2880
0&
b10010000 #
b10010000 (
b1001000 $
b1001000 )
0%
#2890
b11010111 !
b11010111 -
0,
b1001000 +
b10010000 *
1&
#2900
0&
b10010001 #
b10010001 (
#2910
b11011000 !
b11011000 -
b10010001 *
1&
#2920
0&
b10010010 #
b10010010 (
b1001001 $
b1001001 )
#2930
b11011001 !
b11011001 -
b1001001 +
b10010010 *
1&
#2940
0&
b10010011 #
b10010011 (
#2950
b11011011 !
b11011011 -
b10010011 *
1&
#2960
0&
b10010100 #
b10010100 (
b1001010 $
b1001010 )
1%
#2970
b11011100 !
b11011100 -
1,
b1001010 +
b10010100 *
1&
#2980
0&
b10010101 #
b10010101 (
#2990
b11011111 !
b11011111 -
b10010101 *
1&
#3000
0&
b10010110 #
b10010110 (
b1001011 $
b1001011 )
#3010
b11100000 !
b11100000 -
b1001011 +
b10010110 *
1&
#3020
0&
b10010111 #
b10010111 (
#3030
b11100010 !
b11100010 -
b10010111 *
1&
#3040
0&
b10011000 #
b10011000 (
b1001100 $
b1001100 )
0%
#3050
b11100011 !
b11100011 -
0,
b1001100 +
b10011000 *
1&
#3060
0&
b10011001 #
b10011001 (
#3070
b11100100 !
b11100100 -
b10011001 *
1&
#3080
0&
b10011010 #
b10011010 (
b1001101 $
b1001101 )
#3090
b11100101 !
b11100101 -
b1001101 +
b10011010 *
1&
#3100
0&
b10011011 #
b10011011 (
#3110
b11100111 !
b11100111 -
b10011011 *
1&
#3120
0&
b10011100 #
b10011100 (
b1001110 $
b1001110 )
1%
#3130
b11101000 !
b11101000 -
1,
b1001110 +
b10011100 *
1&
#3140
0&
b10011101 #
b10011101 (
#3150
b11101011 !
b11101011 -
b10011101 *
1&
#3160
0&
b10011110 #
b10011110 (
b1001111 $
b1001111 )
#3170
b11101100 !
b11101100 -
b1001111 +
b10011110 *
1&
#3180
0&
b10011111 #
b10011111 (
#3190
b11101110 !
b11101110 -
b10011111 *
1&
#3200
0&
b10100000 #
b10100000 (
b1010000 $
b1010000 )
0%
#3210
b11101111 !
b11101111 -
0,
b1010000 +
b10100000 *
1&
#3220
0&
b10100001 #
b10100001 (
#3230
b11110000 !
b11110000 -
b10100001 *
1&
#3240
0&
b10100010 #
b10100010 (
b1010001 $
b1010001 )
#3250
b11110001 !
b11110001 -
b1010001 +
b10100010 *
1&
#3260
0&
b10100011 #
b10100011 (
#3270
b11110011 !
b11110011 -
b10100011 *
1&
#3280
0&
b10100100 #
b10100100 (
b1010010 $
b1010010 )
1%
#3290
b11110100 !
b11110100 -
1,
b1010010 +
b10100100 *
1&
#3300
0&
b10100101 #
b10100101 (
#3310
b11110111 !
b11110111 -
b10100101 *
1&
#3320
0&
b10100110 #
b10100110 (
b1010011 $
b1010011 )
#3330
b11111000 !
b11111000 -
b1010011 +
b10100110 *
1&
#3340
0&
b10100111 #
b10100111 (
#3350
b11111010 !
b11111010 -
b10100111 *
1&
#3360
0&
b10101000 #
b10101000 (
b1010100 $
b1010100 )
0%
#3370
b11111011 !
b11111011 -
0,
b1010100 +
b10101000 *
1&
#3380
0&
b10101001 #
b10101001 (
#3390
b11111100 !
b11111100 -
b10101001 *
1&
#3400
0&
b10101010 #
b10101010 (
b1010101 $
b1010101 )
#3410
b11111101 !
b11111101 -
b1010101 +
b10101010 *
1&
#3420
0&
b10101011 #
b10101011 (
#3430
b11111111 !
b11111111 -
b10101011 *
1&
#3440
0&
b10101100 #
b10101100 (
b1010110 $
b1010110 )
1%
#3450
b100000000 !
b100000000 -
1,
b1010110 +
b10101100 *
1&
#3460
0&
b10101101 #
b10101101 (
#3470
b100000011 !
b100000011 -
b10101101 *
1&
#3480
0&
b10101110 #
b10101110 (
b1010111 $
b1010111 )
#3490
b100000100 !
b100000100 -
b1010111 +
b10101110 *
1&
#3500
0&
b10101111 #
b10101111 (
#3510
b100000110 !
b100000110 -
b10101111 *
1&
#3520
0&
b10110000 #
b10110000 (
b1011000 $
b1011000 )
0%
#3530
b100000111 !
b100000111 -
0,
b1011000 +
b10110000 *
1&
#3540
0&
b10110001 #
b10110001 (
#3550
b100001000 !
b100001000 -
b10110001 *
1&
#3560
0&
b10110010 #
b10110010 (
b1011001 $
b1011001 )
#3570
b100001001 !
b100001001 -
b1011001 +
b10110010 *
1&
#3580
0&
b10110011 #
b10110011 (
#3590
b100001011 !
b100001011 -
b10110011 *
1&
#3600
0&
b10110100 #
b10110100 (
b1011010 $
b1011010 )
1%
#3610
b100001100 !
b100001100 -
1,
b1011010 +
b10110100 *
1&
#3620
0&
b10110101 #
b10110101 (
#3630
b100001111 !
b100001111 -
b10110101 *
1&
#3640
0&
b10110110 #
b10110110 (
b1011011 $
b1011011 )
#3650
b100010000 !
b100010000 -
b1011011 +
b10110110 *
1&
#3660
0&
b10110111 #
b10110111 (
#3670
b100010010 !
b100010010 -
b10110111 *
1&
#3680
0&
b10111000 #
b10111000 (
b1011100 $
b1011100 )
0%
#3690
b100010011 !
b100010011 -
0,
b1011100 +
b10111000 *
1&
#3700
0&
b10111001 #
b10111001 (
#3710
b100010100 !
b100010100 -
b10111001 *
1&
#3720
0&
b10111010 #
b10111010 (
b1011101 $
b1011101 )
#3730
b100010101 !
b100010101 -
b1011101 +
b10111010 *
1&
#3740
0&
b10111011 #
b10111011 (
#3750
b100010111 !
b100010111 -
b10111011 *
1&
#3760
0&
b10111100 #
b10111100 (
b1011110 $
b1011110 )
1%
#3770
b100011000 !
b100011000 -
1,
b1011110 +
b10111100 *
1&
#3780
0&
b10111101 #
b10111101 (
#3790
b100011011 !
b100011011 -
b10111101 *
1&
#3800
0&
b10111110 #
b10111110 (
b1011111 $
b1011111 )
#3810
b100011100 !
b100011100 -
b1011111 +
b10111110 *
1&
#3820
0&
b10111111 #
b10111111 (
#3830
b100011110 !
b100011110 -
b10111111 *
1&
#3840
0&
b11000000 #
b11000000 (
b1100000 $
b1100000 )
0%
#3850
b100011111 !
b100011111 -
0,
b1100000 +
b11000000 *
1&
#3860
0&
b11000001 #
b11000001 (
#3870
b100100000 !
b100100000 -
b11000001 *
1&
#3880
0&
b11000010 #
b11000010 (
b1100001 $
b1100001 )
#3890
b100100001 !
b100100001 -
b1100001 +
b11000010 *
1&
#3900
0&
b11000011 #
b11000011 (
#3910
b100100011 !
b100100011 -
b11000011 *
1&
#3920
0&
b11000100 #
b11000100 (
b1100010 $
b1100010 )
1%
#3930
b100100100 !
b100100100 -
1,
b1100010 +
b11000100 *
1&
#3940
0&
b11000101 #
b11000101 (
#3950
b100100111 !
b100100111 -
b11000101 *
1&
#3960
0&
b11000110 #
b11000110 (
b1100011 $
b1100011 )
#3970
b100101000 !
b100101000 -
b1100011 +
b11000110 *
1&
#3980
0&
b11000111 #
b11000111 (
#3990
b100101010 !
b100101010 -
b11000111 *
1&
#4000
0&
b11001000 #
b11001000 (
b1100100 $
b1100100 )
0%
#4010
b100101011 !
b100101011 -
0,
b1100100 +
b11001000 *
1&
#4020
0&
b11001001 #
b11001001 (
#4030
b100101100 !
b100101100 -
b11001001 *
1&
#4040
0&
b11001010 #
b11001010 (
b1100101 $
b1100101 )
#4050
b100101101 !
b100101101 -
b1100101 +
b11001010 *
1&
#4060
0&
b11001011 #
b11001011 (
#4070
b100101111 !
b100101111 -
b11001011 *
1&
#4080
0&
b11001100 #
b11001100 (
b1100110 $
b1100110 )
1%
#4090
b100110000 !
b100110000 -
1,
b1100110 +
b11001100 *
1&
#4100
0&
b11001101 #
b11001101 (
#4110
b100110011 !
b100110011 -
b11001101 *
1&
#4120
0&
b11001110 #
b11001110 (
b1100111 $
b1100111 )
#4130
b100110100 !
b100110100 -
b1100111 +
b11001110 *
1&
#4140
0&
b11001111 #
b11001111 (
#4150
b100110110 !
b100110110 -
b11001111 *
1&
#4160
0&
b11010000 #
b11010000 (
b1101000 $
b1101000 )
0%
#4170
b100110111 !
b100110111 -
0,
b1101000 +
b11010000 *
1&
#4180
0&
b11010001 #
b11010001 (
#4190
b100111000 !
b100111000 -
b11010001 *
1&
#4200
0&
b11010010 #
b11010010 (
b1101001 $
b1101001 )
#4210
b100111001 !
b100111001 -
b1101001 +
b11010010 *
1&
#4220
0&
b11010011 #
b11010011 (
#4230
b100111011 !
b100111011 -
b11010011 *
1&
#4240
0&
b11010100 #
b11010100 (
b1101010 $
b1101010 )
1%
#4250
b100111100 !
b100111100 -
1,
b1101010 +
b11010100 *
1&
#4260
0&
b11010101 #
b11010101 (
#4270
b100111111 !
b100111111 -
b11010101 *
1&
#4280
0&
b11010110 #
b11010110 (
b1101011 $
b1101011 )
#4290
b101000000 !
b101000000 -
b1101011 +
b11010110 *
1&
#4300
0&
b11010111 #
b11010111 (
#4310
b101000010 !
b101000010 -
b11010111 *
1&
#4320
0&
b11011000 #
b11011000 (
b1101100 $
b1101100 )
0%
#4330
b101000011 !
b101000011 -
0,
b1101100 +
b11011000 *
1&
#4340
0&
b11011001 #
b11011001 (
#4350
b101000100 !
b101000100 -
b11011001 *
1&
#4360
0&
b11011010 #
b11011010 (
b1101101 $
b1101101 )
#4370
b101000101 !
b101000101 -
b1101101 +
b11011010 *
1&
#4380
0&
b11011011 #
b11011011 (
#4390
b101000111 !
b101000111 -
b11011011 *
1&
#4400
0&
b11011100 #
b11011100 (
b1101110 $
b1101110 )
1%
#4410
b101001000 !
b101001000 -
1,
b1101110 +
b11011100 *
1&
#4420
0&
b11011101 #
b11011101 (
#4430
b101001011 !
b101001011 -
b11011101 *
1&
#4440
0&
b11011110 #
b11011110 (
b1101111 $
b1101111 )
#4450
b101001100 !
b101001100 -
b1101111 +
b11011110 *
1&
#4460
0&
b11011111 #
b11011111 (
#4470
b101001110 !
b101001110 -
b11011111 *
1&
#4480
0&
b11100000 #
b11100000 (
b1110000 $
b1110000 )
0%
#4490
b101001111 !
b101001111 -
0,
b1110000 +
b11100000 *
1&
#4500
0&
b11100001 #
b11100001 (
#4510
b101010000 !
b101010000 -
b11100001 *
1&
#4520
0&
b11100010 #
b11100010 (
b1110001 $
b1110001 )
#4530
b101010001 !
b101010001 -
b1110001 +
b11100010 *
1&
#4540
0&
b11100011 #
b11100011 (
#4550
b101010011 !
b101010011 -
b11100011 *
1&
#4560
0&
b11100100 #
b11100100 (
b1110010 $
b1110010 )
1%
#4570
b101010100 !
b101010100 -
1,
b1110010 +
b11100100 *
1&
#4580
0&
b11100101 #
b11100101 (
#4590
b101010111 !
b101010111 -
b11100101 *
1&
#4600
0&
b11100110 #
b11100110 (
b1110011 $
b1110011 )
#4610
b101011000 !
b101011000 -
b1110011 +
b11100110 *
1&
#4620
0&
b11100111 #
b11100111 (
#4630
b101011010 !
b101011010 -
b11100111 *
1&
#4640
0&
b11101000 #
b11101000 (
b1110100 $
b1110100 )
0%
#4650
b101011011 !
b101011011 -
0,
b1110100 +
b11101000 *
1&
#4660
0&
b11101001 #
b11101001 (
#4670
b101011100 !
b101011100 -
b11101001 *
1&
#4680
0&
b11101010 #
b11101010 (
b1110101 $
b1110101 )
#4690
b101011101 !
b101011101 -
b1110101 +
b11101010 *
1&
#4700
0&
b11101011 #
b11101011 (
#4710
b101011111 !
b101011111 -
b11101011 *
1&
#4720
0&
b11101100 #
b11101100 (
b1110110 $
b1110110 )
1%
#4730
b101100000 !
b101100000 -
1,
b1110110 +
b11101100 *
1&
#4740
0&
b11101101 #
b11101101 (
#4750
b101100011 !
b101100011 -
b11101101 *
1&
#4760
0&
b11101110 #
b11101110 (
b1110111 $
b1110111 )
#4770
b101100100 !
b101100100 -
b1110111 +
b11101110 *
1&
#4780
0&
b11101111 #
b11101111 (
#4790
b101100110 !
b101100110 -
b11101111 *
1&
#4800
0&
b11110000 #
b11110000 (
b1111000 $
b1111000 )
0%
#4810
b101100111 !
b101100111 -
0,
b1111000 +
b11110000 *
1&
#4820
0&
b11110001 #
b11110001 (
#4830
b101101000 !
b101101000 -
b11110001 *
1&
#4840
0&
b11110010 #
b11110010 (
b1111001 $
b1111001 )
#4850
b101101001 !
b101101001 -
b1111001 +
b11110010 *
1&
#4860
0&
b11110011 #
b11110011 (
#4870
b101101011 !
b101101011 -
b11110011 *
1&
#4880
0&
b11110100 #
b11110100 (
b1111010 $
b1111010 )
1%
#4890
b101101100 !
b101101100 -
1,
b1111010 +
b11110100 *
1&
#4900
0&
b11110101 #
b11110101 (
#4910
b101101111 !
b101101111 -
b11110101 *
1&
#4920
0&
b11110110 #
b11110110 (
b1111011 $
b1111011 )
#4930
b101110000 !
b101110000 -
b1111011 +
b11110110 *
1&
#4940
0&
b11110111 #
b11110111 (
#4950
b101110010 !
b101110010 -
b11110111 *
1&
#4960
0&
b11111000 #
b11111000 (
b1111100 $
b1111100 )
0%
#4970
b101110011 !
b101110011 -
0,
b1111100 +
b11111000 *
1&
