Verilog/multiplier/test_faNbit.vcd
$date
	Mon Nov 28 22:12:15 2022
$end
$version
	Icarus Verilog
$end
$timescale
	1s
$end
$scope module faNbit_tb $end
$var wire 32 ! s [31:0] $end
$var wire 1 " cout $end
$var reg 32 # a [31:0] $end
$var reg 32 $ b [31:0] $end
$var reg 1 % cin $end
$var reg 1 & clk $end
$scope module inst $end
$var wire 32 ' a [31:0] $end
$var wire 32 ( b [31:0] $end
$var wire 1 % cin $end
$var wire 1 & clk $end
$var reg 32 ) A [31:0] $end
$var reg 32 * B [31:0] $end
$var reg 1 + Cin $end
$var reg 1 " cout $end
$var reg 32 , s [31:0] $end
$upscope $end
$upscope $end
$enddefinitions $end
#0
$dumpvars
bx ,
x+
bx *
bx )
b0 (
b0 '
0&
0%
b0 $
b0 #
x"
bx !
$end
#5
0+
b0 *
b0 )
1&
#10
0&
1%
#15
1+
0"
b0 !
b0 ,
1&
#20
0&
0%
b11111111111111111111111111111111 $
b11111111111111111111111111111111 (
#25
0+
b11111111111111111111111111111111 *
b1 !
b1 ,
1&
#30
0&
1%
#35
1+
b11111111111111111111111111111111 !
b11111111111111111111111111111111 ,
1&
#40
0&
0%
b0 $
b0 (
b11111111111111111111111111111111 #
b11111111111111111111111111111111 '
#45
0+
b0 *
b11111111111111111111111111111111 )
1"
b0 !
b0 ,
1&
#50
0&
1%
#55
1+
0"
b11111111111111111111111111111111 !
b11111111111111111111111111111111 ,
1&
#60
0&
0%
b11111111111111111111111111111111 $
b11111111111111111111111111111111 (
#65
0+
b11111111111111111111111111111111 *
1"
b0 !
b0 ,
1&
#70
0&
1%
#75
1+
b11111111111111111111111111111110 !
b11111111111111111111111111111110 ,
1&
#80
0&
0%
b0 $
b0 (
b0 #
b0 '
#85
0+
b0 *
b0 )
b11111111111111111111111111111111 !
b11111111111111111111111111111111 ,
1&
#90
0&
1%
#95
1+
0"
b0 !
b0 ,
1&
#100
0&
0%
b11111111111111111111111111111111 $
b11111111111111111111111111111111 (
#105
0+
b11111111111111111111111111111111 *
b1 !
b1 ,
1&
#110
0&
1%
#115
1+
b11111111111111111111111111111111 !
b11111111111111111111111111111111 ,
1&
#120
0&
0%
b0 $
b0 (
b11111111111111111111111111111111 #
b11111111111111111111111111111111 '
#125
0+
b0 *
b11111111111111111111111111111111 )
1"
b0 !
b0 ,
1&
#130
0&
1%
#135
1+
0"
b11111111111111111111111111111111 !
b11111111111111111111111111111111 ,
1&
#140
0&
0%
b11111111111111111111111111111111 $
b11111111111111111111111111111111 (
#145
0+
b11111111111111111111111111111111 *
1"
b0 !
b0 ,
1&
#150
0&
1%
#155
1+
b11111111111111111111111111111110 !
b11111111111111111111111111111110 ,
1&
#160
0&
0%
b0 $
b0 (
b0 #
b0 '
#165
0+
b0 *
b0 )
b11111111111111111111111111111111 !
b11111111111111111111111111111111 ,
1&
#170
0&
1%
#175
1+
0"
b0 !
b0 ,
1&
#180
0&
0%
b11111111111111111111111111111111 $
b11111111111111111111111111111111 (
#185
0+
b11111111111111111111111111111111 *
b1 !
b1 ,
1&
#190
0&
1%
#195
1+
b11111111111111111111111111111111 !
b11111111111111111111111111111111 ,
1&
#200
0&
0%
b0 $
b0 (
b11111111111111111111111111111111 #
b11111111111111111111111111111111 '
#205
0+
b0 *
b11111111111111111111111111111111 )
1"
b0 !
b0 ,
1&
#210
0&
1%
#215
1+
0"
b11111111111111111111111111111111 !
b11111111111111111111111111111111 ,
1&
#220
0&
0%
b11111111111111111111111111111111 $
b11111111111111111111111111111111 (
#225
0+
b11111111111111111111111111111111 *
1"
b0 !
b0 ,
1&
#230
0&
1%
#235
1+
b11111111111111111111111111111110 !
b11111111111111111111111111111110 ,
1&
#240
0&
0%
b0 $
b0 (
b0 #
b0 '
#245
0+
b0 *
b0 )
b11111111111111111111111111111111 !
b11111111111111111111111111111111 ,
1&
#250
0&
1%
#255
1+
0"
b0 !
b0 ,
1&
#260
0&
0%
b11111111111111111111111111111111 $
b11111111111111111111111111111111 (
#265
0+
b11111111111111111111111111111111 *
b1 !
b1 ,
1&
#270
0&
1%
#275
1+
b11111111111111111111111111111111 !
b11111111111111111111111111111111 ,
1&
#280
0&
0%
b0 $
b0 (
b11111111111111111111111111111111 #
b11111111111111111111111111111111 '
#285
0+
b0 *
b11111111111111111111111111111111 )
1"
b0 !
b0 ,
1&
#290
0&
1%
#295
1+
0"
b11111111111111111111111111111111 !
b11111111111111111111111111111111 ,
1&
#300
0&
0%
b11111111111111111111111111111111 $
b11111111111111111111111111111111 (
#305
0+
b11111111111111111111111111111111 *
1"
b0 !
b0 ,
1&
#310
0&
1%
#315
1+
b11111111111111111111111111111110 !
b11111111111111111111111111111110 ,
1&
#320
0&
0%
b0 $
b0 (
b0 #
b0 '
#325
0+
b0 *
b0 )
b11111111111111111111111111111111 !
b11111111111111111111111111111111 ,
1&
#330
0&
1%
#335
1+
0"
b0 !
b0 ,
1&
#340
0&
0%
b11111111111111111111111111111111 $
b11111111111111111111111111111111 (
#345
0+
b11111111111111111111111111111111 *
b1 !
b1 ,
1&
#350
0&
1%
#355
1+
b11111111111111111111111111111111 !
b11111111111111111111111111111111 ,
1&
#360
0&
0%
b0 $
b0 (
b11111111111111111111111111111111 #
b11111111111111111111111111111111 '
#365
0+
b0 *
b11111111111111111111111111111111 )
1"
b0 !
b0 ,
1&
#370
0&
1%
#375
1+
0"
b11111111111111111111111111111111 !
b11111111111111111111111111111111 ,
1&
#380
0&
0%
b11111111111111111111111111111111 $
b11111111111111111111111111111111 (
#385
0+
b11111111111111111111111111111111 *
1"
b0 !
b0 ,
1&
#390
0&
1%
#395
1+
b11111111111111111111111111111110 !
b11111111111111111111111111111110 ,
1&
#400
0&
0%
b0 $
b0 (
b0 #
b0 '
#405
0+
b0 *
b0 )
b11111111111111111111111111111111 !
b11111111111111111111111111111111 ,
1&
#410
0&
1%
#415
1+
0"
b0 !
b0 ,
1&
#420
0&
0%
b11111111111111111111111111111111 $
b11111111111111111111111111111111 (
#425
0+
b11111111111111111111111111111111 *
b1 !
b1 ,
1&
#430
0&
1%
#435
1+
b11111111111111111111111111111111 !
b11111111111111111111111111111111 ,
1&
#440
0&
0%
b0 $
b0 (
b11111111111111111111111111111111 #
b11111111111111111111111111111111 '
#445
0+
b0 *
b11111111111111111111111111111111 )
1"
b0 !
b0 ,
1&
#450
0&
1%
#455
1+
0"
b11111111111111111111111111111111 !
b11111111111111111111111111111111 ,
1&
#460
0&
0%
b11111111111111111111111111111111 $
b11111111111111111111111111111111 (
#465
0+
b11111111111111111111111111111111 *
1"
b0 !
b0 ,
1&
#470
0&
1%
#475
1+
b11111111111111111111111111111110 !
b11111111111111111111111111111110 ,
1&
#480
0&
0%
b0 $
b0 (
b0 #
b0 '
#485
0+
b0 *
b0 )
b11111111111111111111111111111111 !
b11111111111111111111111111111111 ,
1&
#490
0&
1%
#495
1+
0"
b0 !
b0 ,
1&
#500
0&
0%
b11111111111111111111111111111111 $
b11111111111111111111111111111111 (
#505
0+
b11111111111111111111111111111111 *
b1 !
b1 ,
1&
#510
0&
1%
